…
``` r
df.average.by.interval %>% arrange(desc(average.by.interval))
```

```
## # A tibble: 288 × 2
##    interval average.by.interval
##       <int>               <dbl>
##  1      835                206.
##  2      840                196.
##  3      850                183.
##  4      845                180.
##  5      830                177.
##  6      820                171.
##  7      855                167.
##  8      815                158.
##  9      825                155.
## 10      900                143.
## # ℹ 278 more rows
```
…
``` r
# Roughly can be stated: most of days has around 5000 ~ 16000 steps, with the biggest frequency at nearly 11000 or 13000 steps (indeed there two peaks);

# The mean and median total number of steps taken per day

mean.imputed <- round(mean(df.total.steps.per.day.imputed$total.steps.per.day),0)

median.imputed <- median(df.total.steps.per.day.imputed$total.steps.per.day)

df.total.steps.per.day.imputed %>% arrange(total.steps.per.day)
```

```
## # A tibble: 61 × 2
##    date       total.steps.per.day
##    <date>                   <dbl>
##  1 2012-11-15                  41
##  2 2012-10-02                 126
##  3 2012-10-25                2492
##  4 2012-11-08                3219
##  5 2012-11-20                4472
##  6 2012-10-29                5018
##  7 2012-11-16                5441
##  8 2012-10-26                6778
##  9 2012-11-29                7047
## 10 2012-11-13                7336
## # ℹ 51 more rows
```
…
